identifier	container	parents	experiment	default_space	NAME	AGE	FILENAME	CANCER_TYPE	CANCER_STATUS	OWNER	DESCRIPTION	GALAXY_API_ID
			/TESTING/TEST1/VARIANT_PROCESSING	/TESTING	primary_tumor_3.tab			CRC	CASE			f2db41e1fa331b3e_1cd8e2f6b131e891
			/TESTING/TEST1/VARIANT_PROCESSING	/TESTING	primary_tumor_8.tab			CRC	CASE			f2db41e1fa331b3e_df7a1f0c02a5b08e
			/TESTING/TEST1/VARIANT_PROCESSING	/TESTING	primary_tumor_5.tab			CRC	CASE			f2db41e1fa331b3e_33b43b4e7093c91f
			/TESTING/TEST1/VARIANT_PROCESSING	/TESTING	primary_tumor_7.tab			CRC	CASE			f2db41e1fa331b3e_5969b1f7201f12ae
			/TESTING/TEST1/VARIANT_PROCESSING	/TESTING	primary_tumor_9.tab			CRC	CASE			f2db41e1fa331b3e_0a248a1f62a0cc04
			/TESTING/TEST1/VARIANT_PROCESSING	/TESTING	primary_tumor_2.tab			CRC	CASE			f2db41e1fa331b3e_f597429621d6eb2b
			/TESTING/TEST1/VARIANT_PROCESSING	/TESTING	primary_tumor_4.tab			CRC	CASE			f2db41e1fa331b3e_ebfb8f50c6abde6d
			/TESTING/TEST1/VARIANT_PROCESSING	/TESTING	primary_tumor_6.tab			CRC	CASE			f2db41e1fa331b3e_a799d38679e985db
			/TESTING/TEST1/VARIANT_PROCESSING	/TESTING	primary_tumor_1.tab			CRC	CASE			f2db41e1fa331b3e_f2db41e1fa331b3e
