container	parents	experiment	default_space	SAMPLENAME*	FILEPATH	FACILITY	OWNER	CANCERTYPE	CASE	DBKEY	DESCRIPTION	METAID	DATE	GALAXY_API_ID
		/TESTING/TEST1/VARIANT_PROCESSING	TESTING							HG19				
		/TESTING/TEST1/VARIANT_PROCESSING	TESTING							HG19				
		/TESTING/TEST1/VARIANT_PROCESSING	TESTING							HG19				
		/TESTING/TEST1/VARIANT_PROCESSING	TESTING							HG19				
		/TESTING/TEST1/VARIANT_PROCESSING	TESTING							HG19				
		/TESTING/TEST1/VARIANT_PROCESSING	TESTING							HG19				
		/TESTING/TEST1/VARIANT_PROCESSING	TESTING							HG19				
		/TESTING/TEST1/VARIANT_PROCESSING	TESTING							HG19				
		/TESTING/TEST1/VARIANT_PROCESSING	TESTING							HG19				
