container	parents	experiment	default_space	SAMPLENAME	AGE	GENDER	FILEPATH	PLATFORM	DESIGN	FACILITY	OWNER	CANCERTYPE	CASE	BARCODE	DBKEY	DESCRIPTION	METAID	DATE	GALAXY_API_ID
		/TCGA/COAD/VARIANT_CALLING	TCGA	TCGA-D5-6535-01A-11D-1719-10_hg19_Illumina.bam															e85a3be143d5905b_fce1eb90fee8e35c
		/TCGA/COAD/VARIANT_CALLING	TCGA	TCGA-F4-6854-01A-11D-1924-10_hg19_Illumina.bam															e85a3be143d5905b_a3ec593e5c87c9a2
		/TCGA/COAD/VARIANT_CALLING	TCGA	TCGA-F4-6808-01A-11D-1835-10_hg19_Illumina.bam															e85a3be143d5905b_d843156d49599e38
		/TCGA/COAD/VARIANT_CALLING	TCGA	TCGA-AA-3511-11A-01D-1835-10_hg19_Illumina.bam															e85a3be143d5905b_979eccb2ad302efe
		/TCGA/COAD/VARIANT_CALLING	TCGA	TCGA-G4-6298-11A-01D-1719-10_hg19_Illumina.bam															e85a3be143d5905b_b01a6d1e1c77e516
